1º Ano/2º Semestre/LSD/Aulas Práticas/aula01/simulation/qsim/Gatedemo.msim.vcd
$comment
	File created using the following command:
		vcd file Gatedemo.msim.vcd -direction
$end
$date
	Thu Feb 15 15:00:38 2024
$end
$version
	Questa Intel Starter FPGA Edition Version 2021.2
$end
$timescale
	1ps
$end

$scope module gatedemo_vhd_vec_tst $end
$var wire 1 ! A $end
$var wire 1 " B $end
$var wire 1 # pin_name3 $end

$scope module i1 $end
$var wire 1 $ gnd $end
$var wire 1 % vcc $end
$var wire 1 & unknown $end
$var wire 1 ' devoe $end
$var wire 1 ( devclrn $end
$var wire 1 ) devpor $end
$var wire 1 * ww_devoe $end
$var wire 1 + ww_devclrn $end
$var wire 1 , ww_devpor $end
$var wire 1 - ww_pin_name3 $end
$var wire 1 . ww_A $end
$var wire 1 / ww_B $end
$var wire 1 0 \pin_name3~output_o\ $end
$var wire 1 1 \A~input_o\ $end
$var wire 1 2 \B~input_o\ $end
$var wire 1 3 \inst~combout\ $end
$upscope $end
$upscope $end
$enddefinitions $end
#0
$dumpvars
1!
0"
0#
0$
1%
x&
1'
1(
1)
1*
1+
1,
0-
1.
0/
00
11
02
03
$end
#5000
0!
1"
0.
1/
12
01
#10000
0"
0/
02
#15000
1!
1.
11
#20000
0!
1"
0.
1/
12
01
#30000
0"
0/
02
#35000
1!
1.
11
#40000
0!
1"
0.
1/
12
01
#45000
1!
0"
1.
0/
02
11
#60000
0!
0.
01
#70000
1!
1"
1.
1/
12
11
13
10
1-
1#
#85000
0!
0.
01
03
00
0-
0#
#90000
1!
1.
11
13
10
1-
1#
#100000
0!
0.
01
03
00
0-
0#
#105000
0"
0/
02
#115000
1"
1/
12
#125000
1!
1.
11
13
10
1-
1#
#135000
0"
0/
02
03
00
0-
0#
#140000
0!
0.
01
#155000
1"
1/
12
#160000
1!
1.
11
13
10
1-
1#
#170000
0"
0/
02
03
00
0-
0#
#175000
1"
0!
1/
0.
01
12
#180000
0"
0/
02
#185000
1"
1/
12
#190000
0"
1!
0/
1.
11
02
#195000
0!
0.
01
#200000
1!
1"
1.
1/
12
11
13
10
1-
1#
#205000
0!
0"
0.
0/
02
01
03
00
0-
0#
#210000
1"
1/
12
#215000
1!
1.
11
13
10
1-
1#
#220000
0!
0.
01
03
00
0-
0#
#225000
0"
0/
02
#230000
1"
1!
1/
1.
11
12
13
10
1-
1#
#235000
0"
0/
02
03
00
0-
0#
#240000
0!
0.
01
#245000
1!
1.
11
#250000
1"
1/
12
13
10
1-
1#
#255000
0"
0!
0/
0.
01
02
03
00
0-
0#
#260000
1"
1/
12
#265000
0"
0/
02
#270000
1!
1.
11
#275000
1"
1/
12
13
10
1-
1#
#280000
0"
0!
0/
0.
01
02
03
00
0-
0#
#285000
1!
1.
11
#290000
0!
1"
0.
1/
12
01
#295000
0"
0/
02
#305000
1"
1!
1/
1.
11
12
13
10
1-
1#
#310000
0"
0/
02
03
00
0-
0#
#315000
1"
1/
12
13
10
1-
1#
#320000
0"
0/
02
03
00
0-
0#
#325000
0!
0.
01
#330000
1!
1.
11
#335000
0!
1"
0.
1/
12
01
#340000
0"
0/
02
#345000
1"
1!
1/
1.
11
12
13
10
1-
1#
#365000
0"
0/
02
03
00
0-
0#
#370000
1"
1/
12
13
10
1-
1#
#375000
0"
0/
02
03
00
0-
0#
#380000
1"
1/
12
13
10
1-
1#
#385000
0"
0/
02
03
00
0-
0#
#390000
0!
0.
01
#395000
1!
1"
1.
1/
12
11
13
10
1-
1#
#400000
0!
0.
01
03
00
0-
0#
#405000
1!
0"
1.
0/
02
11
#410000
1"
1/
12
13
10
1-
1#
#415000
0"
0!
0/
0.
01
02
03
00
0-
0#
#420000
1"
1/
12
#430000
0"
1!
0/
1.
11
02
#435000
0!
0.
01
#440000
1"
1/
12
#450000
1!
1.
11
13
10
1-
1#
#455000
0"
0/
02
03
00
0-
0#
#465000
1"
0!
1/
0.
01
12
#480000
0"
0/
02
#495000
1"
1!
1/
1.
11
12
13
10
1-
1#
#505000
0"
0!
0/
0.
01
02
03
00
0-
0#
#510000
1"
1/
12
#515000
0"
1!
0/
1.
11
02
#520000
1"
1/
12
13
10
1-
1#
#525000
0"
0!
0/
0.
01
02
03
00
0-
0#
#530000
1"
1/
12
#535000
0"
1!
0/
1.
11
02
#545000
1"
0!
1/
0.
01
12
#555000
0"
0/
02
#560000
1"
1/
12
#565000
0"
0/
02
#570000
1!
1.
11
#575000
0!
1"
0.
1/
12
01
#580000
1!
1.
11
13
10
1-
1#
#585000
0!
0.
01
03
00
0-
0#
#595000
0"
0/
02
#610000
1!
1.
11
#615000
1"
1/
12
13
10
1-
1#
#620000
0"
0/
02
03
00
0-
0#
#625000
1"
1/
12
13
10
1-
1#
#630000
0!
0.
01
03
00
0-
0#
#635000
0"
0/
02
#645000
1"
1/
12
#655000
0"
1!
0/
1.
11
02
#660000
1"
0!
1/
0.
01
12
#665000
0"
0/
02
#670000
1!
1.
11
#675000
0!
0.
01
#690000
1!
1"
1.
1/
12
11
13
10
1-
1#
#700000
0!
0"
0.
0/
02
01
03
00
0-
0#
#705000
1"
1/
12
#715000
1!
1.
11
13
10
1-
1#
#725000
0"
0/
02
03
00
0-
0#
#730000
1"
1/
12
13
10
1-
1#
#735000
0!
0.
01
03
00
0-
0#
#740000
1!
0"
1.
0/
02
11
#745000
0!
1"
0.
1/
12
01
#750000
1!
0"
1.
0/
02
11
#760000
0!
0.
01
#765000
1!
1.
11
#770000
0!
1"
0.
1/
12
01
#775000
1!
0"
1.
0/
02
11
#780000
0!
0.
01
#785000
1"
1/
12
#790000
1!
1.
11
13
10
1-
1#
#795000
0!
0"
0.
0/
02
01
03
00
0-
0#
#800000
1"
1/
12
#805000
1!
1.
11
13
10
1-
1#
#815000
0!
0"
0.
0/
02
01
03
00
0-
0#
#820000
1"
1/
12
#825000
1!
1.
11
13
10
1-
1#
#835000
0!
0.
01
03
00
0-
0#
#840000
0"
0/
02
#845000
1"
1!
1/
1.
11
12
13
10
1-
1#
#855000
0"
0!
0/
0.
01
02
03
00
0-
0#
#860000
1"
1!
1/
1.
11
12
13
10
1-
1#
#865000
0"
0/
02
03
00
0-
0#
#870000
1"
1/
12
13
10
1-
1#
#875000
0"
0!
0/
0.
01
02
03
00
0-
0#
#885000
1"
1!
1/
1.
11
12
13
10
1-
1#
#890000
0!
0.
01
03
00
0-
0#
#895000
0"
0/
02
#900000
1"
1!
1/
1.
11
12
13
10
1-
1#
#905000
0"
0!
0/
0.
01
02
03
00
0-
0#
#910000
1!
1.
11
#915000
1"
1/
12
13
10
1-
1#
#930000
0!
0.
01
03
00
0-
0#
#935000
1!
1.
11
13
10
1-
1#
#940000
0!
0.
01
03
00
0-
0#
#945000
1!
1.
11
13
10
1-
1#
#955000
0!
0"
0.
0/
02
01
03
00
0-
0#
#960000
1"
1/
12
#965000
1!
1.
11
13
10
1-
1#
#970000
0!
0.
01
03
00
0-
0#
#975000
1!
0"
1.
0/
02
11
#980000
0!
1"
0.
1/
12
01
#985000
1!
1.
11
13
10
1-
1#
#990000
0!
0.
01
03
00
0-
0#
#995000
0"
0/
02
